%YAML 1.1
%TAG !u! tag:unity3d.com,2011:
--- !u!1001 &1033152874372906857
PrefabInstance:
  m_ObjectHideFlags: 0
  serializedVersion: 2
  m_Modification:
    serializedVersion: 3
    m_TransformParent: {fileID: 0}
    m_Modifications:
    - target: {fileID: 5717395360158361881, guid: 4105017022bd16e4bb1389c2b678ded8, type: 3}
      propertyPath: m_Layer
      value: 11
      objectReference: {fileID: 0}
    - target: {fileID: 5717395360158361883, guid: 4105017022bd16e4bb1389c2b678ded8, type: 3}
      propertyPath: m_Radius
      value: 0.5
      objectReference: {fileID: 0}
    - target: {fileID: 5717395360158361883, guid: 4105017022bd16e4bb1389c2b678ded8, type: 3}
      propertyPath: m_IsTrigger
      value: 1
      objectReference: {fileID: 0}
    - target: {fileID: 5717395360158361884, guid: 4105017022bd16e4bb1389c2b678ded8, type: 3}
      propertyPath: m_Sprite
      value: 
      objectReference: {fileID: 21300000, guid: 9ab332b7a90cc104ea436deb3be18ef8, type: 3}
    - target: {fileID: 5717395360158361884, guid: 4105017022bd16e4bb1389c2b678ded8, type: 3}
      propertyPath: m_Color.a
      value: 0.5019608
      objectReference: {fileID: 0}
    - target: {fileID: 5717395360158361884, guid: 4105017022bd16e4bb1389c2b678ded8, type: 3}
      propertyPath: m_Color.b
      value: 0.5019608
      objectReference: {fileID: 0}
    - target: {fileID: 5717395360158361884, guid: 4105017022bd16e4bb1389c2b678ded8, type: 3}
      propertyPath: m_Color.g
      value: 0.5019608
      objectReference: {fileID: 0}
    - target: {fileID: 5717395360158361884, guid: 4105017022bd16e4bb1389c2b678ded8, type: 3}
      propertyPath: m_Color.r
      value: 0.5019608
      objectReference: {fileID: 0}
    - target: {fileID: 5717395361022984433, guid: 4105017022bd16e4bb1389c2b678ded8, type: 3}
      propertyPath: m_RootOrder
      value: 0
      objectReference: {fileID: 0}
    - target: {fileID: 5717395361022984433, guid: 4105017022bd16e4bb1389c2b678ded8, type: 3}
      propertyPath: m_LocalScale.x
      value: 1
      objectReference: {fileID: 0}
    - target: {fileID: 5717395361022984433, guid: 4105017022bd16e4bb1389c2b678ded8, type: 3}
      propertyPath: m_LocalScale.y
      value: 1
      objectReference: {fileID: 0}
    - target: {fileID: 5717395361022984433, guid: 4105017022bd16e4bb1389c2b678ded8, type: 3}
      propertyPath: m_LocalPosition.x
      value: 0
      objectReference: {fileID: 0}
    - target: {fileID: 5717395361022984433, guid: 4105017022bd16e4bb1389c2b678ded8, type: 3}
      propertyPath: m_LocalPosition.y
      value: 0
      objectReference: {fileID: 0}
    - target: {fileID: 5717395361022984433, guid: 4105017022bd16e4bb1389c2b678ded8, type: 3}
      propertyPath: m_LocalPosition.z
      value: 0
      objectReference: {fileID: 0}
    - target: {fileID: 5717395361022984433, guid: 4105017022bd16e4bb1389c2b678ded8, type: 3}
      propertyPath: m_LocalRotation.w
      value: 1
      objectReference: {fileID: 0}
    - target: {fileID: 5717395361022984433, guid: 4105017022bd16e4bb1389c2b678ded8, type: 3}
      propertyPath: m_LocalRotation.x
      value: 0
      objectReference: {fileID: 0}
    - target: {fileID: 5717395361022984433, guid: 4105017022bd16e4bb1389c2b678ded8, type: 3}
      propertyPath: m_LocalRotation.y
      value: 0
      objectReference: {fileID: 0}
    - target: {fileID: 5717395361022984433, guid: 4105017022bd16e4bb1389c2b678ded8, type: 3}
      propertyPath: m_LocalRotation.z
      value: 0
      objectReference: {fileID: 0}
    - target: {fileID: 5717395361022984433, guid: 4105017022bd16e4bb1389c2b678ded8, type: 3}
      propertyPath: m_LocalEulerAnglesHint.x
      value: 0
      objectReference: {fileID: 0}
    - target: {fileID: 5717395361022984433, guid: 4105017022bd16e4bb1389c2b678ded8, type: 3}
      propertyPath: m_LocalEulerAnglesHint.y
      value: 0
      objectReference: {fileID: 0}
    - target: {fileID: 5717395361022984433, guid: 4105017022bd16e4bb1389c2b678ded8, type: 3}
      propertyPath: m_LocalEulerAnglesHint.z
      value: 0
      objectReference: {fileID: 0}
    - target: {fileID: 5717395361022984434, guid: 4105017022bd16e4bb1389c2b678ded8, type: 3}
      propertyPath: m_Mass
      value: 1
      objectReference: {fileID: 0}
    - target: {fileID: 5717395361022984434, guid: 4105017022bd16e4bb1389c2b678ded8, type: 3}
      propertyPath: m_BodyType
      value: 2
      objectReference: {fileID: 0}
    - target: {fileID: 5717395361022984447, guid: 4105017022bd16e4bb1389c2b678ded8, type: 3}
      propertyPath: m_Name
      value: Enemy Poison Bullet 2
      objectReference: {fileID: 0}
    - target: {fileID: 5717395361022984447, guid: 4105017022bd16e4bb1389c2b678ded8, type: 3}
      propertyPath: m_Layer
      value: 11
      objectReference: {fileID: 0}
    - target: {fileID: 6028344593500589868, guid: 4105017022bd16e4bb1389c2b678ded8, type: 3}
      propertyPath: addToPoison
      value: 1
      objectReference: {fileID: 0}
    - target: {fileID: 6028344593500589868, guid: 4105017022bd16e4bb1389c2b678ded8, type: 3}
      propertyPath: prefabIndex
      value: -1
      objectReference: {fileID: 0}
    - target: {fileID: 6028344593500589868, guid: 4105017022bd16e4bb1389c2b678ded8, type: 3}
      propertyPath: poisonDamage
      value: 1
      objectReference: {fileID: 0}
    - target: {fileID: 6028344593500589868, guid: 4105017022bd16e4bb1389c2b678ded8, type: 3}
      propertyPath: poisonToDamage
      value: 1
      objectReference: {fileID: 0}
    - target: {fileID: 6028344593500589868, guid: 4105017022bd16e4bb1389c2b678ded8, type: 3}
      propertyPath: addToPoisonRate
      value: 1
      objectReference: {fileID: 0}
    m_RemovedComponents: []
    m_RemovedGameObjects: []
    m_AddedGameObjects: []
    m_AddedComponents:
    - targetCorrespondingSourceObject: {fileID: 5717395360158361881, guid: 4105017022bd16e4bb1389c2b678ded8, type: 3}
      insertIndex: -1
      addedObject: {fileID: 2000536778301075268}
  m_SourcePrefab: {fileID: 100100000, guid: 4105017022bd16e4bb1389c2b678ded8, type: 3}
--- !u!1 &4687750065352021616 stripped
GameObject:
  m_CorrespondingSourceObject: {fileID: 5717395360158361881, guid: 4105017022bd16e4bb1389c2b678ded8, type: 3}
  m_PrefabInstance: {fileID: 1033152874372906857}
  m_PrefabAsset: {fileID: 0}
--- !u!331 &2000536778301075268
SpriteMask:
  m_ObjectHideFlags: 0
  m_CorrespondingSourceObject: {fileID: 0}
  m_PrefabInstance: {fileID: 0}
  m_PrefabAsset: {fileID: 0}
  m_GameObject: {fileID: 4687750065352021616}
  m_Enabled: 1
  m_CastShadows: 1
  m_ReceiveShadows: 1
  m_DynamicOccludee: 1
  m_StaticShadowCaster: 0
  m_MotionVectors: 1
  m_LightProbeUsage: 1
  m_ReflectionProbeUsage: 1
  m_RayTracingMode: 0
  m_RayTraceProcedural: 0
  m_RenderingLayerMask: 1
  m_RendererPriority: 0
  m_Materials:
  - {fileID: 2100000, guid: 15d0c3709176029428a0da2f8cecf0b5, type: 2}
  m_StaticBatchInfo:
    firstSubMesh: 0
    subMeshCount: 0
  m_StaticBatchRoot: {fileID: 0}
  m_ProbeAnchor: {fileID: 0}
  m_LightProbeVolumeOverride: {fileID: 0}
  m_ScaleInLightmap: 1
  m_ReceiveGI: 1
  m_PreserveUVs: 0
  m_IgnoreNormalsForChartDetection: 0
  m_ImportantGI: 0
  m_StitchLightmapSeams: 1
  m_SelectedEditorRenderState: 3
  m_MinimumChartSize: 4
  m_AutoUVMaxDistance: 0.5
  m_AutoUVMaxAngle: 89
  m_LightmapParameters: {fileID: 0}
  m_SortingLayerID: 0
  m_SortingLayer: 0
  m_SortingOrder: 0
  m_Sprite: {fileID: -2413806693520163455, guid: ebe73ca9363db456bacf42c025bb4847, type: 3}
  m_MaskAlphaCutoff: 0.2
  m_FrontSortingLayerID: 0
  m_BackSortingLayerID: 0
  m_FrontSortingLayer: 0
  m_BackSortingLayer: 0
  m_FrontSortingOrder: 0
  m_BackSortingOrder: 0
  m_IsCustomRangeActive: 0
  m_SpriteSortPoint: 0
