%YAML 1.1
%TAG !u! tag:unity3d.com,2011:
--- !u!1001 &5424908508667262688
PrefabInstance:
  m_ObjectHideFlags: 0
  serializedVersion: 2
  m_Modification:
    serializedVersion: 3
    m_TransformParent: {fileID: 0}
    m_Modifications:
    - target: {fileID: 1874814602990611697, guid: 9160e36211aac194fb551d49125e0f37, type: 3}
      propertyPath: m_Color.b
      value: 0.5019608
      objectReference: {fileID: 0}
    - target: {fileID: 1874814602990611697, guid: 9160e36211aac194fb551d49125e0f37, type: 3}
      propertyPath: m_Color.g
      value: 0.5019608
      objectReference: {fileID: 0}
    - target: {fileID: 1874814602990611697, guid: 9160e36211aac194fb551d49125e0f37, type: 3}
      propertyPath: m_Color.r
      value: 0
      objectReference: {fileID: 0}
    - target: {fileID: 1874814603719935250, guid: 9160e36211aac194fb551d49125e0f37, type: 3}
      propertyPath: m_Name
      value: Enemy Bullet 9
      objectReference: {fileID: 0}
    - target: {fileID: 1874814603719935260, guid: 9160e36211aac194fb551d49125e0f37, type: 3}
      propertyPath: m_RootOrder
      value: 0
      objectReference: {fileID: 0}
    - target: {fileID: 1874814603719935260, guid: 9160e36211aac194fb551d49125e0f37, type: 3}
      propertyPath: m_LocalPosition.x
      value: 0
      objectReference: {fileID: 0}
    - target: {fileID: 1874814603719935260, guid: 9160e36211aac194fb551d49125e0f37, type: 3}
      propertyPath: m_LocalPosition.y
      value: 0
      objectReference: {fileID: 0}
    - target: {fileID: 1874814603719935260, guid: 9160e36211aac194fb551d49125e0f37, type: 3}
      propertyPath: m_LocalPosition.z
      value: 0
      objectReference: {fileID: 0}
    - target: {fileID: 1874814603719935260, guid: 9160e36211aac194fb551d49125e0f37, type: 3}
      propertyPath: m_LocalRotation.w
      value: 1
      objectReference: {fileID: 0}
    - target: {fileID: 1874814603719935260, guid: 9160e36211aac194fb551d49125e0f37, type: 3}
      propertyPath: m_LocalRotation.x
      value: 0
      objectReference: {fileID: 0}
    - target: {fileID: 1874814603719935260, guid: 9160e36211aac194fb551d49125e0f37, type: 3}
      propertyPath: m_LocalRotation.y
      value: 0
      objectReference: {fileID: 0}
    - target: {fileID: 1874814603719935260, guid: 9160e36211aac194fb551d49125e0f37, type: 3}
      propertyPath: m_LocalRotation.z
      value: 0
      objectReference: {fileID: 0}
    - target: {fileID: 1874814603719935260, guid: 9160e36211aac194fb551d49125e0f37, type: 3}
      propertyPath: m_LocalEulerAnglesHint.x
      value: 0
      objectReference: {fileID: 0}
    - target: {fileID: 1874814603719935260, guid: 9160e36211aac194fb551d49125e0f37, type: 3}
      propertyPath: m_LocalEulerAnglesHint.y
      value: 0
      objectReference: {fileID: 0}
    - target: {fileID: 1874814603719935260, guid: 9160e36211aac194fb551d49125e0f37, type: 3}
      propertyPath: m_LocalEulerAnglesHint.z
      value: 0
      objectReference: {fileID: 0}
    - target: {fileID: 1874814603719935261, guid: 9160e36211aac194fb551d49125e0f37, type: 3}
      propertyPath: range
      value: 65
      objectReference: {fileID: 0}
    - target: {fileID: 1874814603719935261, guid: 9160e36211aac194fb551d49125e0f37, type: 3}
      propertyPath: damage
      value: 1
      objectReference: {fileID: 0}
    - target: {fileID: 1874814603719935261, guid: 9160e36211aac194fb551d49125e0f37, type: 3}
      propertyPath: moveSpeed
      value: 7
      objectReference: {fileID: 0}
    - target: {fileID: 1874814603719935261, guid: 9160e36211aac194fb551d49125e0f37, type: 3}
      propertyPath: prefabIndex
      value: 16
      objectReference: {fileID: 0}
    - target: {fileID: 1874814603719935261, guid: 9160e36211aac194fb551d49125e0f37, type: 3}
      propertyPath: autoDespawnMode
      value: 1
      objectReference: {fileID: 0}
    - target: {fileID: 1874814603719935263, guid: 9160e36211aac194fb551d49125e0f37, type: 3}
      propertyPath: m_Mass
      value: 0.022167077
      objectReference: {fileID: 0}
    m_RemovedComponents: []
    m_RemovedGameObjects: []
    m_AddedGameObjects: []
    m_AddedComponents: []
  m_SourcePrefab: {fileID: 100100000, guid: 9160e36211aac194fb551d49125e0f37, type: 3}
