%YAML 1.1
%TAG !u! tag:unity3d.com,2011:
--- !u!1001 &5424908508667262688
PrefabInstance:
  m_ObjectHideFlags: 0
  serializedVersion: 2
  m_Modification:
    serializedVersion: 3
    m_TransformParent: {fileID: 0}
    m_Modifications:
    - target: {fileID: 1874814602990611697, guid: 9160e36211aac194fb551d49125e0f37, type: 3}
      propertyPath: m_Sprite
      value: 
      objectReference: {fileID: 21300000, guid: 1e80ba482ef17984290276f133f0dea7, type: 3}
    - target: {fileID: 1874814602990611697, guid: 9160e36211aac194fb551d49125e0f37, type: 3}
      propertyPath: m_Color.b
      value: 0
      objectReference: {fileID: 0}
    - target: {fileID: 1874814602990611697, guid: 9160e36211aac194fb551d49125e0f37, type: 3}
      propertyPath: m_Color.g
      value: 0
      objectReference: {fileID: 0}
    - target: {fileID: 1874814602990611697, guid: 9160e36211aac194fb551d49125e0f37, type: 3}
      propertyPath: m_Color.r
      value: 0.5019608
      objectReference: {fileID: 0}
    - target: {fileID: 1874814602990611703, guid: 9160e36211aac194fb551d49125e0f37, type: 3}
      propertyPath: m_LocalScale.x
      value: 0.5
      objectReference: {fileID: 0}
    - target: {fileID: 1874814603719935250, guid: 9160e36211aac194fb551d49125e0f37, type: 3}
      propertyPath: m_Name
      value: Enemy Bullet 6
      objectReference: {fileID: 0}
    - target: {fileID: 1874814603719935260, guid: 9160e36211aac194fb551d49125e0f37, type: 3}
      propertyPath: m_RootOrder
      value: 0
      objectReference: {fileID: 0}
    - target: {fileID: 1874814603719935260, guid: 9160e36211aac194fb551d49125e0f37, type: 3}
      propertyPath: m_LocalScale.x
      value: 0.4
      objectReference: {fileID: 0}
    - target: {fileID: 1874814603719935260, guid: 9160e36211aac194fb551d49125e0f37, type: 3}
      propertyPath: m_LocalScale.y
      value: 0.4
      objectReference: {fileID: 0}
    - target: {fileID: 1874814603719935260, guid: 9160e36211aac194fb551d49125e0f37, type: 3}
      propertyPath: m_LocalPosition.x
      value: 0
      objectReference: {fileID: 0}
    - target: {fileID: 1874814603719935260, guid: 9160e36211aac194fb551d49125e0f37, type: 3}
      propertyPath: m_LocalPosition.y
      value: 0
      objectReference: {fileID: 0}
    - target: {fileID: 1874814603719935260, guid: 9160e36211aac194fb551d49125e0f37, type: 3}
      propertyPath: m_LocalPosition.z
      value: 0
      objectReference: {fileID: 0}
    - target: {fileID: 1874814603719935260, guid: 9160e36211aac194fb551d49125e0f37, type: 3}
      propertyPath: m_LocalRotation.w
      value: 1
      objectReference: {fileID: 0}
    - target: {fileID: 1874814603719935260, guid: 9160e36211aac194fb551d49125e0f37, type: 3}
      propertyPath: m_LocalRotation.x
      value: 0
      objectReference: {fileID: 0}
    - target: {fileID: 1874814603719935260, guid: 9160e36211aac194fb551d49125e0f37, type: 3}
      propertyPath: m_LocalRotation.y
      value: 0
      objectReference: {fileID: 0}
    - target: {fileID: 1874814603719935260, guid: 9160e36211aac194fb551d49125e0f37, type: 3}
      propertyPath: m_LocalRotation.z
      value: 0
      objectReference: {fileID: 0}
    - target: {fileID: 1874814603719935260, guid: 9160e36211aac194fb551d49125e0f37, type: 3}
      propertyPath: m_LocalEulerAnglesHint.x
      value: 0
      objectReference: {fileID: 0}
    - target: {fileID: 1874814603719935260, guid: 9160e36211aac194fb551d49125e0f37, type: 3}
      propertyPath: m_LocalEulerAnglesHint.y
      value: 0
      objectReference: {fileID: 0}
    - target: {fileID: 1874814603719935260, guid: 9160e36211aac194fb551d49125e0f37, type: 3}
      propertyPath: m_LocalEulerAnglesHint.z
      value: 0
      objectReference: {fileID: 0}
    - target: {fileID: 1874814603719935261, guid: 9160e36211aac194fb551d49125e0f37, type: 3}
      propertyPath: range
      value: 65
      objectReference: {fileID: 0}
    - target: {fileID: 1874814603719935261, guid: 9160e36211aac194fb551d49125e0f37, type: 3}
      propertyPath: damage
      value: 1
      objectReference: {fileID: 0}
    - target: {fileID: 1874814603719935261, guid: 9160e36211aac194fb551d49125e0f37, type: 3}
      propertyPath: radius
      value: 0.2309435
      objectReference: {fileID: 0}
    - target: {fileID: 1874814603719935261, guid: 9160e36211aac194fb551d49125e0f37, type: 3}
      propertyPath: collider
      value: 
      objectReference: {fileID: 6270916072645766784}
    - target: {fileID: 1874814603719935261, guid: 9160e36211aac194fb551d49125e0f37, type: 3}
      propertyPath: moveSpeed
      value: 7.5
      objectReference: {fileID: 0}
    - target: {fileID: 1874814603719935261, guid: 9160e36211aac194fb551d49125e0f37, type: 3}
      propertyPath: prefabIndex
      value: 11
      objectReference: {fileID: 0}
    - target: {fileID: 1874814603719935261, guid: 9160e36211aac194fb551d49125e0f37, type: 3}
      propertyPath: autoDespawnMode
      value: 1
      objectReference: {fileID: 0}
    - target: {fileID: 1874814603719935263, guid: 9160e36211aac194fb551d49125e0f37, type: 3}
      propertyPath: m_Mass
      value: 0.034641016
      objectReference: {fileID: 0}
    m_RemovedComponents:
    - {fileID: 1874814602990611702, guid: 9160e36211aac194fb551d49125e0f37, type: 3}
    m_RemovedGameObjects: []
    m_AddedGameObjects: []
    m_AddedComponents:
    - targetCorrespondingSourceObject: {fileID: 1874814602990611700, guid: 9160e36211aac194fb551d49125e0f37, type: 3}
      insertIndex: -1
      addedObject: {fileID: 6270916072645766784}
  m_SourcePrefab: {fileID: 100100000, guid: 9160e36211aac194fb551d49125e0f37, type: 3}
--- !u!1 &5858488745311033876 stripped
GameObject:
  m_CorrespondingSourceObject: {fileID: 1874814602990611700, guid: 9160e36211aac194fb551d49125e0f37, type: 3}
  m_PrefabInstance: {fileID: 5424908508667262688}
  m_PrefabAsset: {fileID: 0}
--- !u!60 &6270916072645766784
PolygonCollider2D:
  m_ObjectHideFlags: 0
  m_CorrespondingSourceObject: {fileID: 0}
  m_PrefabInstance: {fileID: 0}
  m_PrefabAsset: {fileID: 0}
  m_GameObject: {fileID: 5858488745311033876}
  m_Enabled: 1
  m_Density: 1
  m_Material: {fileID: 0}
  m_IncludeLayers:
    serializedVersion: 2
    m_Bits: 0
  m_ExcludeLayers:
    serializedVersion: 2
    m_Bits: 0
  m_LayerOverridePriority: 0
  m_ForceSendLayers:
    serializedVersion: 2
    m_Bits: 4294967295
  m_ForceReceiveLayers:
    serializedVersion: 2
    m_Bits: 4294967295
  m_ContactCaptureLayers:
    serializedVersion: 2
    m_Bits: 4294967295
  m_CallbackLayers:
    serializedVersion: 2
    m_Bits: 4294967295
  m_IsTrigger: 0
  m_UsedByEffector: 0
  m_UsedByComposite: 0
  m_Offset: {x: 0, y: 0}
  m_SpriteTilingProperty:
    border: {x: 0, y: 0, z: 0, w: 0}
    pivot: {x: 0.5, y: 0.335}
    oldSize: {x: 1, y: 0.86178863}
    newSize: {x: 0.841623, y: 1}
    adaptiveTilingThreshold: 0.5
    drawMode: 0
    adaptiveTiling: 0
  m_AutoTiling: 0
  m_Points:
    m_Paths:
    - - {x: 0, y: 0.5773587}
      - {x: -0.5, y: -0.28866667}
      - {x: 0.5, y: -0.28866667}
  m_UseDelaunayMesh: 0
