%YAML 1.1
%TAG !u! tag:unity3d.com,2011:
--- !u!1001 &4122961613336567238
PrefabInstance:
  m_ObjectHideFlags: 0
  serializedVersion: 2
  m_Modification:
    serializedVersion: 3
    m_TransformParent: {fileID: 0}
    m_Modifications:
    - target: {fileID: 7452668761730863043, guid: beeba8e0528fe6b4a97f683d58d8b2d6, type: 3}
      propertyPath: m_Sprite
      value: 
      objectReference: {fileID: 21300000, guid: 76433be598ee5ad4fb06fe2a46476c9c, type: 3}
    - target: {fileID: 7452668761730863043, guid: beeba8e0528fe6b4a97f683d58d8b2d6, type: 3}
      propertyPath: m_Color.a
      value: 1
      objectReference: {fileID: 0}
    - target: {fileID: 7452668761730863043, guid: beeba8e0528fe6b4a97f683d58d8b2d6, type: 3}
      propertyPath: m_Color.b
      value: 0.5019608
      objectReference: {fileID: 0}
    - target: {fileID: 7452668761730863043, guid: beeba8e0528fe6b4a97f683d58d8b2d6, type: 3}
      propertyPath: m_Color.g
      value: 0.5019608
      objectReference: {fileID: 0}
    - target: {fileID: 7452668761730863043, guid: beeba8e0528fe6b4a97f683d58d8b2d6, type: 3}
      propertyPath: m_Color.r
      value: 0.5019608
      objectReference: {fileID: 0}
    - target: {fileID: 7452668761730863043, guid: beeba8e0528fe6b4a97f683d58d8b2d6, type: 3}
      propertyPath: m_SortingLayer
      value: -1
      objectReference: {fileID: 0}
    - target: {fileID: 7452668761730863043, guid: beeba8e0528fe6b4a97f683d58d8b2d6, type: 3}
      propertyPath: m_SortingOrder
      value: -100
      objectReference: {fileID: 0}
    - target: {fileID: 7452668761730863043, guid: beeba8e0528fe6b4a97f683d58d8b2d6, type: 3}
      propertyPath: m_SortingLayerID
      value: 41023813
      objectReference: {fileID: 0}
    - target: {fileID: 7452668761730863046, guid: beeba8e0528fe6b4a97f683d58d8b2d6, type: 3}
      propertyPath: m_Name
      value: Graphics And Collider
      objectReference: {fileID: 0}
    - target: {fileID: 7452668761730863046, guid: beeba8e0528fe6b4a97f683d58d8b2d6, type: 3}
      propertyPath: m_Layer
      value: 8
      objectReference: {fileID: 0}
    - target: {fileID: 7452668762594420256, guid: beeba8e0528fe6b4a97f683d58d8b2d6, type: 3}
      propertyPath: m_Name
      value: Enemy Bomb 3
      objectReference: {fileID: 0}
    - target: {fileID: 7452668762594420256, guid: beeba8e0528fe6b4a97f683d58d8b2d6, type: 3}
      propertyPath: m_Layer
      value: 8
      objectReference: {fileID: 0}
    - target: {fileID: 7452668762594420269, guid: beeba8e0528fe6b4a97f683d58d8b2d6, type: 3}
      propertyPath: m_Mass
      value: 0.1317036
      objectReference: {fileID: 0}
    - target: {fileID: 7452668762594420270, guid: beeba8e0528fe6b4a97f683d58d8b2d6, type: 3}
      propertyPath: m_RootOrder
      value: 0
      objectReference: {fileID: 0}
    - target: {fileID: 7452668762594420270, guid: beeba8e0528fe6b4a97f683d58d8b2d6, type: 3}
      propertyPath: m_LocalScale.x
      value: 0.525
      objectReference: {fileID: 0}
    - target: {fileID: 7452668762594420270, guid: beeba8e0528fe6b4a97f683d58d8b2d6, type: 3}
      propertyPath: m_LocalScale.y
      value: 0.525
      objectReference: {fileID: 0}
    - target: {fileID: 7452668762594420270, guid: beeba8e0528fe6b4a97f683d58d8b2d6, type: 3}
      propertyPath: m_LocalPosition.x
      value: 0
      objectReference: {fileID: 0}
    - target: {fileID: 7452668762594420270, guid: beeba8e0528fe6b4a97f683d58d8b2d6, type: 3}
      propertyPath: m_LocalPosition.y
      value: 0
      objectReference: {fileID: 0}
    - target: {fileID: 7452668762594420270, guid: beeba8e0528fe6b4a97f683d58d8b2d6, type: 3}
      propertyPath: m_LocalPosition.z
      value: 0
      objectReference: {fileID: 0}
    - target: {fileID: 7452668762594420270, guid: beeba8e0528fe6b4a97f683d58d8b2d6, type: 3}
      propertyPath: m_LocalRotation.w
      value: 1
      objectReference: {fileID: 0}
    - target: {fileID: 7452668762594420270, guid: beeba8e0528fe6b4a97f683d58d8b2d6, type: 3}
      propertyPath: m_LocalRotation.x
      value: 0
      objectReference: {fileID: 0}
    - target: {fileID: 7452668762594420270, guid: beeba8e0528fe6b4a97f683d58d8b2d6, type: 3}
      propertyPath: m_LocalRotation.y
      value: 0
      objectReference: {fileID: 0}
    - target: {fileID: 7452668762594420270, guid: beeba8e0528fe6b4a97f683d58d8b2d6, type: 3}
      propertyPath: m_LocalRotation.z
      value: 0
      objectReference: {fileID: 0}
    - target: {fileID: 7452668762594420270, guid: beeba8e0528fe6b4a97f683d58d8b2d6, type: 3}
      propertyPath: m_LocalEulerAnglesHint.x
      value: 0
      objectReference: {fileID: 0}
    - target: {fileID: 7452668762594420270, guid: beeba8e0528fe6b4a97f683d58d8b2d6, type: 3}
      propertyPath: m_LocalEulerAnglesHint.y
      value: 0
      objectReference: {fileID: 0}
    - target: {fileID: 7452668762594420270, guid: beeba8e0528fe6b4a97f683d58d8b2d6, type: 3}
      propertyPath: m_LocalEulerAnglesHint.z
      value: 0
      objectReference: {fileID: 0}
    - target: {fileID: 7898264246336257176, guid: beeba8e0528fe6b4a97f683d58d8b2d6, type: 3}
      propertyPath: damage
      value: 1
      objectReference: {fileID: 0}
    - target: {fileID: 7898264246336257176, guid: beeba8e0528fe6b4a97f683d58d8b2d6, type: 3}
      propertyPath: radius
      value: 0.20475
      objectReference: {fileID: 0}
    - target: {fileID: 7898264246336257176, guid: beeba8e0528fe6b4a97f683d58d8b2d6, type: 3}
      propertyPath: collider
      value: 
      objectReference: {fileID: 6798888967965053442}
    - target: {fileID: 7898264246336257176, guid: beeba8e0528fe6b4a97f683d58d8b2d6, type: 3}
      propertyPath: duration
      value: 3
      objectReference: {fileID: 0}
    - target: {fileID: 7898264246336257176, guid: beeba8e0528fe6b4a97f683d58d8b2d6, type: 3}
      propertyPath: moveSpeed
      value: 5
      objectReference: {fileID: 0}
    - target: {fileID: 7898264246336257176, guid: beeba8e0528fe6b4a97f683d58d8b2d6, type: 3}
      propertyPath: prefabIndex
      value: 23
      objectReference: {fileID: 0}
    - target: {fileID: 7898264246336257176, guid: beeba8e0528fe6b4a97f683d58d8b2d6, type: 3}
      propertyPath: explodeOnHit
      value: 1
      objectReference: {fileID: 0}
    - target: {fileID: 7898264246336257176, guid: beeba8e0528fe6b4a97f683d58d8b2d6, type: 3}
      propertyPath: autoDespawnMode
      value: 2
      objectReference: {fileID: 0}
    - target: {fileID: 7898264246336257176, guid: beeba8e0528fe6b4a97f683d58d8b2d6, type: 3}
      propertyPath: explosionPrefab
      value: 
      objectReference: {fileID: 2304566772022380516, guid: 8c9161fcaf35c1641bf935d6c3ae8c61, type: 3}
    - target: {fileID: 7898264246336257176, guid: beeba8e0528fe6b4a97f683d58d8b2d6, type: 3}
      propertyPath: hitsTillDespawn
      value: 2147483647
      objectReference: {fileID: 0}
    - target: {fileID: 7898264246336257176, guid: beeba8e0528fe6b4a97f683d58d8b2d6, type: 3}
      propertyPath: explodeOnDisable
      value: 1
      objectReference: {fileID: 0}
    - target: {fileID: 7898264246336257176, guid: beeba8e0528fe6b4a97f683d58d8b2d6, type: 3}
      propertyPath: explodeDelayAnimEntry.animatorStateName
      value: Explode
      objectReference: {fileID: 0}
    m_RemovedComponents: []
    m_RemovedGameObjects: []
    m_AddedGameObjects: []
    m_AddedComponents: []
  m_SourcePrefab: {fileID: 100100000, guid: beeba8e0528fe6b4a97f683d58d8b2d6, type: 3}
--- !u!58 &6798888967965053442 stripped
CircleCollider2D:
  m_CorrespondingSourceObject: {fileID: 7452668761730863044, guid: beeba8e0528fe6b4a97f683d58d8b2d6, type: 3}
  m_PrefabInstance: {fileID: 4122961613336567238}
  m_PrefabAsset: {fileID: 0}
