%YAML 1.1
%TAG !u! tag:unity3d.com,2011:
--- !u!1001 &7403881812383409181
PrefabInstance:
  m_ObjectHideFlags: 0
  serializedVersion: 2
  m_Modification:
    serializedVersion: 3
    m_TransformParent: {fileID: 0}
    m_Modifications:
    - target: {fileID: 3019553109432820962, guid: d48c8cf368d96af4a9911f557973173b, type: 3}
      propertyPath: m_Name
      value: Poison Bullet
      objectReference: {fileID: 0}
    - target: {fileID: 3019553109432820972, guid: d48c8cf368d96af4a9911f557973173b, type: 3}
      propertyPath: m_RootOrder
      value: 0
      objectReference: {fileID: 0}
    - target: {fileID: 3019553109432820972, guid: d48c8cf368d96af4a9911f557973173b, type: 3}
      propertyPath: m_LocalPosition.x
      value: 0
      objectReference: {fileID: 0}
    - target: {fileID: 3019553109432820972, guid: d48c8cf368d96af4a9911f557973173b, type: 3}
      propertyPath: m_LocalPosition.y
      value: 0
      objectReference: {fileID: 0}
    - target: {fileID: 3019553109432820972, guid: d48c8cf368d96af4a9911f557973173b, type: 3}
      propertyPath: m_LocalPosition.z
      value: 0
      objectReference: {fileID: 0}
    - target: {fileID: 3019553109432820972, guid: d48c8cf368d96af4a9911f557973173b, type: 3}
      propertyPath: m_LocalRotation.w
      value: 1
      objectReference: {fileID: 0}
    - target: {fileID: 3019553109432820972, guid: d48c8cf368d96af4a9911f557973173b, type: 3}
      propertyPath: m_LocalRotation.x
      value: 0
      objectReference: {fileID: 0}
    - target: {fileID: 3019553109432820972, guid: d48c8cf368d96af4a9911f557973173b, type: 3}
      propertyPath: m_LocalRotation.y
      value: 0
      objectReference: {fileID: 0}
    - target: {fileID: 3019553109432820972, guid: d48c8cf368d96af4a9911f557973173b, type: 3}
      propertyPath: m_LocalRotation.z
      value: 0
      objectReference: {fileID: 0}
    - target: {fileID: 3019553109432820972, guid: d48c8cf368d96af4a9911f557973173b, type: 3}
      propertyPath: m_LocalEulerAnglesHint.x
      value: 0
      objectReference: {fileID: 0}
    - target: {fileID: 3019553109432820972, guid: d48c8cf368d96af4a9911f557973173b, type: 3}
      propertyPath: m_LocalEulerAnglesHint.y
      value: 0
      objectReference: {fileID: 0}
    - target: {fileID: 3019553109432820972, guid: d48c8cf368d96af4a9911f557973173b, type: 3}
      propertyPath: m_LocalEulerAnglesHint.z
      value: 0
      objectReference: {fileID: 0}
    - target: {fileID: 3019553109432820975, guid: d48c8cf368d96af4a9911f557973173b, type: 3}
      propertyPath: m_Mass
      value: 0.022167077
      objectReference: {fileID: 0}
    m_RemovedComponents:
    - {fileID: 3019553109432820973, guid: d48c8cf368d96af4a9911f557973173b, type: 3}
    m_RemovedGameObjects: []
    m_AddedGameObjects: []
    m_AddedComponents:
    - targetCorrespondingSourceObject: {fileID: 3019553109432820962, guid: d48c8cf368d96af4a9911f557973173b, type: 3}
      insertIndex: 1
      addedObject: {fileID: 6028344593500589868}
  m_SourcePrefab: {fileID: 100100000, guid: d48c8cf368d96af4a9911f557973173b, type: 3}
--- !u!58 &5717395360158361883 stripped
CircleCollider2D:
  m_CorrespondingSourceObject: {fileID: 3019553110715665670, guid: d48c8cf368d96af4a9911f557973173b, type: 3}
  m_PrefabInstance: {fileID: 7403881812383409181}
  m_PrefabAsset: {fileID: 0}
--- !u!212 &5717395360158361884 stripped
SpriteRenderer:
  m_CorrespondingSourceObject: {fileID: 3019553110715665665, guid: d48c8cf368d96af4a9911f557973173b, type: 3}
  m_PrefabInstance: {fileID: 7403881812383409181}
  m_PrefabAsset: {fileID: 0}
--- !u!4 &5717395361022984433 stripped
Transform:
  m_CorrespondingSourceObject: {fileID: 3019553109432820972, guid: d48c8cf368d96af4a9911f557973173b, type: 3}
  m_PrefabInstance: {fileID: 7403881812383409181}
  m_PrefabAsset: {fileID: 0}
--- !u!50 &5717395361022984434 stripped
Rigidbody2D:
  m_CorrespondingSourceObject: {fileID: 3019553109432820975, guid: d48c8cf368d96af4a9911f557973173b, type: 3}
  m_PrefabInstance: {fileID: 7403881812383409181}
  m_PrefabAsset: {fileID: 0}
--- !u!1 &5717395361022984447 stripped
GameObject:
  m_CorrespondingSourceObject: {fileID: 3019553109432820962, guid: d48c8cf368d96af4a9911f557973173b, type: 3}
  m_PrefabInstance: {fileID: 7403881812383409181}
  m_PrefabAsset: {fileID: 0}
--- !u!114 &6028344593500589868
MonoBehaviour:
  m_ObjectHideFlags: 0
  m_CorrespondingSourceObject: {fileID: 0}
  m_PrefabInstance: {fileID: 0}
  m_PrefabAsset: {fileID: 0}
  m_GameObject: {fileID: 5717395361022984447}
  m_Enabled: 1
  m_EditorHideFlags: 0
  m_Script: {fileID: 11500000, guid: be05e92978bde424995fc7704ca7dffc, type: 3}
  m_Name: 
  m_EditorClassIdentifier: 
  trs: {fileID: 5717395361022984433}
  prefabIndex: 0
  damage: 0
  spriteRenderer: {fileID: 5717395360158361884}
  range: 0
  duration: 0
  rigid: {fileID: 5717395361022984434}
  moveSpeed: 0
  autoDespawnMode: 0
  collider: {fileID: 5717395360158361883}
  hitsTillDespawn: 0
  whatReducesHits:
    serializedVersion: 2
    m_Bits: 0
  velocity: {x: 0, y: 0}
  extraVelocity: {x: 0, y: 0}
  radius: 0.084
  previousFacing: {x: 0, y: 0}
  addToPoisonRate: 0
  poisonToDamage: 0
  poisonDamage: 0
